^C:\USERS\ARSENIY.LEBEDEV\DOCUMENTS\VISUAL STUDIO 2012\PROJECTS\CSHARP\MARIO\MARIO\ENEMY.CPP
/c /I"D:\SFML-2.4.2-windows-vc11-32-bit\include" /ZI /nologo /W3 /WX- /Od /Oy- /D SFML_DYNAMIC /D WIN32 /D _DEBUG /D _CONSOLE /D _UNICODE /D UNICODE /Gm /EHsc /RTC1 /MDd /GS /fp:precise /Zc:wchar_t /Zc:forScope /Fo"DEBUG\\" /Fd"DEBUG\VC110.PDB" /Gd /TP /analyze- C:\USERS\ARSENIY.LEBEDEV\DOCUMENTS\VISUAL STUDIO 2012\PROJECTS\CSHARP\MARIO\MARIO\ENEMY.CPP
^C:\USERS\ARSENIY.LEBEDEV\DOCUMENTS\VISUAL STUDIO 2012\PROJECTS\CSHARP\MARIO\MARIO\MAIN.CPP
/c /I"D:\SFML-2.4.2-windows-vc11-32-bit\include" /ZI /nologo /W3 /WX- /Od /Oy- /D SFML_DYNAMIC /D WIN32 /D _DEBUG /D _CONSOLE /D _UNICODE /D UNICODE /Gm /EHsc /RTC1 /MDd /GS /fp:precise /Zc:wchar_t /Zc:forScope /Fo"DEBUG\\" /Fd"DEBUG\VC110.PDB" /Gd /TP /analyze- C:\USERS\ARSENIY.LEBEDEV\DOCUMENTS\VISUAL STUDIO 2012\PROJECTS\CSHARP\MARIO\MARIO\MAIN.CPP
^C:\USERS\ARSENIY.LEBEDEV\DOCUMENTS\VISUAL STUDIO 2012\PROJECTS\CSHARP\MARIO\MARIO\PERSON.CPP
/c /I"D:\SFML-2.4.2-windows-vc11-32-bit\include" /ZI /nologo /W3 /WX- /Od /Oy- /D SFML_DYNAMIC /D WIN32 /D _DEBUG /D _CONSOLE /D _UNICODE /D UNICODE /Gm /EHsc /RTC1 /MDd /GS /fp:precise /Zc:wchar_t /Zc:forScope /Fo"DEBUG\\" /Fd"DEBUG\VC110.PDB" /Gd /TP /analyze- C:\USERS\ARSENIY.LEBEDEV\DOCUMENTS\VISUAL STUDIO 2012\PROJECTS\CSHARP\MARIO\MARIO\PERSON.CPP
^C:\USERS\ARSENIY.LEBEDEV\DOCUMENTS\VISUAL STUDIO 2012\PROJECTS\CSHARP\MARIO\MARIO\PLAYER.CPP
/c /I"D:\SFML-2.4.2-windows-vc11-32-bit\include" /ZI /nologo /W3 /WX- /Od /Oy- /D SFML_DYNAMIC /D WIN32 /D _DEBUG /D _CONSOLE /D _UNICODE /D UNICODE /Gm /EHsc /RTC1 /MDd /GS /fp:precise /Zc:wchar_t /Zc:forScope /Fo"DEBUG\\" /Fd"DEBUG\VC110.PDB" /Gd /TP /analyze- C:\USERS\ARSENIY.LEBEDEV\DOCUMENTS\VISUAL STUDIO 2012\PROJECTS\CSHARP\MARIO\MARIO\PLAYER.CPP
^C:\USERS\ARSENIY.LEBEDEV\DOCUMENTS\VISUAL STUDIO 2012\PROJECTS\CSHARP\MARIO\MARIO\REWARD.CPP
/c /I"D:\SFML-2.4.2-windows-vc11-32-bit\include" /ZI /nologo /W3 /WX- /Od /Oy- /D SFML_DYNAMIC /D WIN32 /D _DEBUG /D _CONSOLE /D _UNICODE /D UNICODE /Gm /EHsc /RTC1 /MDd /GS /fp:precise /Zc:wchar_t /Zc:forScope /Fo"DEBUG\\" /Fd"DEBUG\VC110.PDB" /Gd /TP /analyze- C:\USERS\ARSENIY.LEBEDEV\DOCUMENTS\VISUAL STUDIO 2012\PROJECTS\CSHARP\MARIO\MARIO\REWARD.CPP
^C:\USERS\ARSENIY.LEBEDEV\DOCUMENTS\VISUAL STUDIO 2012\PROJECTS\CSHARP\MARIO\MARIO\SPRITEHANDLER.CPP
/c /I"D:\SFML-2.4.2-windows-vc11-32-bit\include" /ZI /nologo /W3 /WX- /Od /Oy- /D SFML_DYNAMIC /D WIN32 /D _DEBUG /D _CONSOLE /D _UNICODE /D UNICODE /Gm /EHsc /RTC1 /MDd /GS /fp:precise /Zc:wchar_t /Zc:forScope /Fo"DEBUG\\" /Fd"DEBUG\VC110.PDB" /Gd /TP /analyze- C:\USERS\ARSENIY.LEBEDEV\DOCUMENTS\VISUAL STUDIO 2012\PROJECTS\CSHARP\MARIO\MARIO\SPRITEHANDLER.CPP
^C:\USERS\ARSENIY.LEBEDEV\DOCUMENTS\VISUAL STUDIO 2012\PROJECTS\CSHARP\MARIO\MARIO\TILEMAP.CPP
/c /I"D:\SFML-2.4.2-windows-vc11-32-bit\include" /ZI /nologo /W3 /WX- /Od /Oy- /D SFML_DYNAMIC /D WIN32 /D _DEBUG /D _CONSOLE /D _UNICODE /D UNICODE /Gm /EHsc /RTC1 /MDd /GS /fp:precise /Zc:wchar_t /Zc:forScope /Fo"DEBUG\\" /Fd"DEBUG\VC110.PDB" /Gd /TP /analyze- C:\USERS\ARSENIY.LEBEDEV\DOCUMENTS\VISUAL STUDIO 2012\PROJECTS\CSHARP\MARIO\MARIO\TILEMAP.CPP
