^C:\USERS\ARSENIY.LEBEDEV\DOCUMENTS\VISUAL STUDIO 2012\PROJECTS\CSHARP\MARIO\MARIO\ENEMY.CPP|C:\USERS\ARSENIY.LEBEDEV\DOCUMENTS\VISUAL STUDIO 2012\PROJECTS\CSHARP\MARIO\MARIO\MAIN.CPP
C:\USERS\ARSENIY.LEBEDEV\DOCUMENTS\VISUAL STUDIO 2012\PROJECTS\CSHARP\MARIO\MARIO\DEBUGSTATIC\MAIN.OBJ
C:\USERS\ARSENIY.LEBEDEV\DOCUMENTS\VISUAL STUDIO 2012\PROJECTS\CSHARP\MARIO\MARIO\DEBUGSTATIC\ENEMY.OBJ
^C:\USERS\ARSENIY.LEBEDEV\DOCUMENTS\VISUAL STUDIO 2012\PROJECTS\CSHARP\MARIO\MARIO\ENEMY.CPP
C:\USERS\ARSENIY.LEBEDEV\DOCUMENTS\VISUAL STUDIO 2012\PROJECTS\CSHARP\MARIO\MARIO\DEBUGSTATIC\VC110.PDB
^C:\USERS\ARSENIY.LEBEDEV\DOCUMENTS\VISUAL STUDIO 2012\PROJECTS\CSHARP\MARIO\MARIO\MAIN.CPP
C:\USERS\ARSENIY.LEBEDEV\DOCUMENTS\VISUAL STUDIO 2012\PROJECTS\CSHARP\MARIO\MARIO\DEBUGSTATIC\VC110.PDB
