^C:\USERS\ARSENIY.LEBEDEV\DOCUMENTS\VISUAL STUDIO 2012\PROJECTS\CSHARP\MARIO\MARIO\DEBUGSTATIC\MAIN.OBJ
/OUT:"C:\USERS\ARSENIY.LEBEDEV\DOCUMENTS\VISUAL STUDIO 2012\PROJECTS\CSHARP\MARIO\DEBUGSTATIC\MARIO.EXE" /NOLOGO /LIBPATH:"D:\SFML-2.4.2-windows-vc11-32-bit\lib" "sfml-graphics-s-d.lib" freetype.lib jpeg.lib opengl32.lib "sfml-window-s-d.lib" gdi32.lib "sfml-audio-s-d.lib" flac.lib vorbisenc.lib vorbisfile.lib vorbis.lib ogg.lib openal32.lib "sfml-system-s-d.lib" winmm.lib kernel32.lib user32.lib gdi32.lib winspool.lib comdlg32.lib advapi32.lib shell32.lib ole32.lib oleaut32.lib uuid.lib odbc32.lib odbccp32.lib /MANIFEST /MANIFESTUAC:"level='asInvoker' uiAccess='false'" /manifest:embed /PDB:"C:\USERS\ARSENIY.LEBEDEV\DOCUMENTS\VISUAL STUDIO 2012\PROJECTS\CSHARP\MARIO\DEBUGSTATIC\MARIO.PDB" /TLBID:1 /DYNAMICBASE /NXCOMPAT /IMPLIB:"C:\USERS\ARSENIY.LEBEDEV\DOCUMENTS\VISUAL STUDIO 2012\PROJECTS\CSHARP\MARIO\DEBUGSTATIC\MARIO.LIB" /MACHINE:X86 /SAFESEH DEBUGSTATIC\MAIN.OBJ
^C:\USERS\ARSENIY.LEBEDEV\DOCUMENTS\VISUAL STUDIO 2012\PROJECTS\CSHARP\MARIO\MARIO\DEBUGSTATIC\ENEMY.OBJ|C:\USERS\ARSENIY.LEBEDEV\DOCUMENTS\VISUAL STUDIO 2012\PROJECTS\CSHARP\MARIO\MARIO\DEBUGSTATIC\MAIN.OBJ
/OUT:"C:\USERS\ARSENIY.LEBEDEV\DOCUMENTS\VISUAL STUDIO 2012\PROJECTS\CSHARP\MARIO\DEBUGSTATIC\MARIO.EXE" /NOLOGO /LIBPATH:"D:\SFML-2.4.2-windows-vc11-32-bit\lib" "sfml-graphics-s-d.lib" freetype.lib jpeg.lib opengl32.lib "sfml-window-s-d.lib" gdi32.lib "sfml-audio-s-d.lib" flac.lib vorbisenc.lib vorbisfile.lib vorbis.lib ogg.lib openal32.lib "sfml-system-s-d.lib" winmm.lib kernel32.lib user32.lib gdi32.lib winspool.lib comdlg32.lib advapi32.lib shell32.lib ole32.lib oleaut32.lib uuid.lib odbc32.lib odbccp32.lib /MANIFEST /MANIFESTUAC:"level='asInvoker' uiAccess='false'" /manifest:embed /PDB:"C:\USERS\ARSENIY.LEBEDEV\DOCUMENTS\VISUAL STUDIO 2012\PROJECTS\CSHARP\MARIO\DEBUGSTATIC\MARIO.PDB" /TLBID:1 /DYNAMICBASE /NXCOMPAT /IMPLIB:"C:\USERS\ARSENIY.LEBEDEV\DOCUMENTS\VISUAL STUDIO 2012\PROJECTS\CSHARP\MARIO\DEBUGSTATIC\MARIO.LIB" /MACHINE:X86 /SAFESEH DEBUGSTATIC\ENEMY.OBJDEBUGSTATIC\MAIN.OBJ
